/home/leonardo/workspace-eduK/eduk-forum/src/test/java/eduk/forum/config/TestPersistenceConfig.java
/home/leonardo/workspace-eduK/eduk-forum/src/test/java/eduk/forum/user/UserResourceTest.java
/home/leonardo/workspace-eduK/eduk-forum/src/test/java/eduk/forum/post/PostResourceTest.java
